Table
Atom	Assignment
0	12.56
1	135.66
2	194.06
4	175.96
5	69.06
7	41.760000000000005
8	47.760000000000005
9	31.76
10	58.16
11	45.760000000000005
12	38.56
13	33.16
14	32.260000000000005
15	53.56
16	77.56