Table
Atom	Assignment
0	29.18
1	91.2
2	57.41
3	25.53
4	39.129999999999995
5	50.93000000000001
6	21.63
7	57.14
8	73.34
10	34.04
11	49.45
12	52.36
13	23.330000000000002
14	24.84
15	218.82999999999998
17	39.89
18	35.58
19	29.27
20	31.0
21	23.11
22	29.43
23	35.230000000000004
24	49.19
25	21.63
26	36.72
27	30.64
28	180.23