Table
Atom	Assignment
0	114.25999999999999
1	148.96
2	40.760000000000005
3	22.66
4	37.06
5	141.46
6	142.16
7	28.96
8	50.16
9	148.46
10	115.96
11	27.16
12	186.66
14	147.26
16	63.86
17	147.16
19	63.86
20	186.35999999999999