Table
Atom	Assignment
0	114.56
1	147.46
2	76.25999999999999
3	30.56
5	44.66
6	25.06
7	132.26
8	139.96
9	62.56
11	37.760000000000005
12	31.16
13	146.56
14	134.16
15	37.260000000000005
16	30.46
17	126.06
18	134.85999999999999
19	28.26
20	20.36
21	174.85999999999999