Table
Atom	Assignment
0	124.46
1	140.56
2	172.85999999999999
5	82.66
6	47.56
7	62.66
8	19.96
10	64.06
11	26.86
12	41.56
13	135.85999999999999
14	17.36
15	128.16
16	26.46
17	39.06
18	141.06
19	17.36
20	122.16
21	30.86
22	46.959999999999994