Table
Atom	Assignment
0	129.06
1	138.16
2	20.66
3	169.35999999999999
6	76.06
7	46.459999999999994
8	92.25999999999999
9	23.26
11	189.46
12	107.36
13	207.46
15	133.06
16	22.96
17	137.66
18	84.16
20	171.46
22	136.16
23	127.06
24	53.760000000000005