Table
Atom	Assignment
0	23.16
1	173.46
4	64.16
5	136.26
6	132.56
7	28.26
8	41.66
9	139.66
10	18.36
11	126.86
12	61.16
14	37.760000000000005
15	27.86
16	33.66
17	40.260000000000005
18	17.759999999999998
19	77.75999999999999
21	34.760000000000005
22	123.25999999999999
23	138.26
24	20.16
25	28.16