Table
Atom	Assignment
0	22.16
1	167.16
2	117.16
3	173.66
6	38.760000000000005
7	37.06
8	41.760000000000005
9	31.86
10	45.260000000000005
11	20.96
12	28.46
13	84.46
15	78.46
16	24.16
18	44.56
19	23.36
20	30.96
21	30.36
22	39.56
23	18.46