Table
Atom	Assignment
0	12.96
1	130.96
2	135.35999999999999
3	23.26
4	44.56
5	75.56
6	30.76
8	142.66
9	125.56
10	42.16
11	63.36
12	20.96
14	61.760000000000005
15	27.36
16	38.86
17	144.26
18	18.76
19	128.36
20	86.66
22	81.06