Table
Atom	Assignment
0	126.96
1	139.56
2	171.85999999999999
5	77.86
6	42.459999999999994
7	37.06
8	29.26
9	41.459999999999994
10	21.26
11	42.959999999999994
12	203.66
14	146.76
15	131.46
16	41.760000000000005