Table
Atom	Assignment
0	51.16
2	78.36
3	23.86
4	30.46
5	76.46
7	39.56
8	33.16
9	40.56
10	36.66
11	40.459999999999994
12	139.56
13	130.36
14	123.16
15	147.66
16	73.46
17	32.46
18	32.36
20	73.56
22	174.06
24	56.56
25	41.06