Table
Atom	Assignment
0	115.96
1	148.35999999999999
2	21.56
3	43.86
4	39.66
5	146.16
6	129.26
7	44.16
8	206.85999999999999
9	33.36
11	165.06
14	55.459999999999994
15	36.36
16	120.25999999999999
18	53.260000000000005
20	163.56
21	108.46
22	199.76
23	32.260000000000005
25	140.46
26	142.46
27	169.96
30	54.86