Table
Atom	Assignment
0	107.56
1	160.96
2	42.760000000000005
3	35.959999999999994
4	20.66
5	49.06
6	41.459999999999994
7	20.86
8	42.56
9	20.76
10	37.86
11	40.260000000000005
12	20.26
13	74.86
15	51.36
16	22.36
17	41.16
18	48.36
19	39.16
20	85.25999999999999