Table
Atom	Assignment
0	114.86
1	149.06
2	43.459999999999994
3	19.86
4	48.459999999999994
5	81.25999999999999
7	180.46
9	125.66
10	57.459999999999994
12	167.66
13	31.16
14	55.86
15	147.35999999999999
16	116.96
17	19.56
18	35.56
19	41.16
20	25.66
21	155.46
22	115.36
23	47.56
24	80.56
25	44.86
26	35.66
27	27.46
28	45.260000000000005
29	31.36
31	176.76
33	79.46
35	66.75999999999999