Table of Assignments
Atom  Exp. Shift (ppm)
28	2.1304
29	2.1304
30	2.1304
26	2.6299
27	2.4961
20	3.1830
21	3.1830
22	3.1830
17	3.1830
18	3.1830
19	3.1830
23	3.1830
24	3.1830
25	3.1830
14	3.8427
15	3.5975
16	5.5923