Table of Assignments
Atom  Exp. Shift (ppm)
35	3.5952
36	3.5952
33	2.1681
34	2.1681
29	1.5421
30	1.5421
31	1.5421
32	1.5421
25	1.2971
26	1.2971
21	1.2971
22	1.2971
17	1.2971
18	1.2971
15	1.2971
16	1.2971
19	1.2971
20	1.2971
23	1.2971
24	1.2971
27	1.2971
28	1.2971